[{"iban":"DK39 5824 6944 5112 11","userid":6,"balance":794827.4},
{"iban":"AZ16 SUAY LS9B CPQW XPQG BNTU 81YU","userid":17,"balance":945652.21},
{"iban":"BE96 6209 2068 3637","userid":22,"balance":407404.72},
{"iban":"SI51 9103 0040 3394 066","userid":15,"balance":861122.43},
{"iban":"FR85 4957 0698 32TT MOPU MH5U Q55","userid":10,"balance":310496.09},
{"iban":"SI45 9675 8304 7859 921","userid":10,"balance":705079.0},
{"iban":"IT56 S724 2202 1737 EDBJ QFLY NB6","userid":20,"balance":814112.95},
{"iban":"PL24 5033 8187 7093 5388 5068 6787","userid":12,"balance":771780.4},
{"iban":"RO86 AFCN OVTC JEVU ENKY IW4N","userid":6,"balance":597174.34},
{"iban":"AL32 0235 0436 O69F QTUQ WG58 KQAU","userid":24,"balance":672892.17},
{"iban":"CY77 7699 2668 JBO3 SWAB RTL7 SYHY","userid":24,"balance":704764.78},
{"iban":"BA98 9235 7398 5696 7619","userid":21,"balance":173266.57},
{"iban":"LI39 5438 95TU VPMI TGJ9 J","userid":20,"balance":563909.31},
{"iban":"AL10 4095 8098 AZAQ Z9UZ 4PRV KD2O","userid":25,"balance":885522.94},
{"iban":"FI85 9672 4299 0074 55","userid":7,"balance":239924.48},
{"iban":"PK70 AOVV CGUX ZLLC MTV6 NTPN","userid":7,"balance":27557.81},
{"iban":"PK94 WZZK EGSZ G2AB 9EZJ J5XE","userid":10,"balance":415862.78},
{"iban":"LV17 ZRTK OZKH FIN4 TOSQ E","userid":29,"balance":678113.46},
{"iban":"NL85 MPIE 3928 6625 95","userid":15,"balance":807035.13},
{"iban":"FR28 2979 3226 25YP 67SE 2OGP 798","userid":27,"balance":741560.99},
{"iban":"MC29 7150 8640 19RE TSFH VRD4 H55","userid":25,"balance":486795.08},
{"iban":"LU48 246H J8OM TVA7 ZBB6","userid":8,"balance":592007.19},
{"iban":"FI84 7453 7762 6767 74","userid":16,"balance":477753.72},
{"iban":"PS17 WDWP ILX9 IOWS EMYM NXTU D0VN D","userid":26,"balance":109022.56},
{"iban":"MT30 YYGH 8329 2R59 9QQW S1JZ 9P1L EFW","userid":18,"balance":661003.0},
{"iban":"BH92 ODLV ZU09 R8I7 KVEN LL","userid":15,"balance":53302.02},
{"iban":"IE62 EAMV 9186 4063 9918 08","userid":18,"balance":722283.35},
{"iban":"SE29 7671 1561 7608 0551 9050","userid":26,"balance":959775.94},
{"iban":"IS78 6492 0100 1257 9891 2386 88","userid":8,"balance":960878.0},
{"iban":"EE75 4270 3247 1954 2459","userid":4,"balance":125007.11},
{"iban":"SE97 9446 3021 4869 8841 7042","userid":23,"balance":571900.55},
{"iban":"GB26 QPRR 6969 5963 5215 47","userid":17,"balance":162570.76},
{"iban":"AT36 4139 7063 5907 3600","userid":29,"balance":825882.78},
{"iban":"FR69 4283 8044 28RW 9BMX 6WB1 S29","userid":2,"balance":27690.46},
{"iban":"FR35 6946 0037 346B RKWR M1L4 C49","userid":10,"balance":492200.57},
{"iban":"FR33 3055 2442 15RL JJ8Z VC7O S47","userid":10,"balance":2049.9},
{"iban":"FR13 4721 2097 94UN GIJK JLW6 Y49","userid":24,"balance":462062.28},
{"iban":"PK27 XJDY AII6 JGXD XJQS M267","userid":8,"balance":710718.56},
{"iban":"SI51 5627 1360 6683 913","userid":16,"balance":549861.53},
{"iban":"GB24 BTOI 5292 5680 3153 97","userid":23,"balance":206372.8},
{"iban":"IS76 6074 0738 5549 6291 4945 00","userid":19,"balance":141157.24},
{"iban":"GI77 NMOG G17A QU6O KM6J Y3H","userid":29,"balance":406634.18},
{"iban":"GL56 4320 0876 5009 35","userid":6,"balance":704841.59},
{"iban":"GI84 DDKJ WNGD PEDN YNM5 RLJ","userid":30,"balance":273328.46},
{"iban":"FR21 6036 1700 41ZV JQRE 5HBF D45","userid":16,"balance":424059.0},
{"iban":"FR45 4145 9229 68XE IETA 4EVB A49","userid":4,"balance":505677.63},
{"iban":"FR12 9451 9635 83IT QTJA DNG1 G20","userid":3,"balance":864939.85},
{"iban":"AE78 2904 8108 6125 0716 160","userid":10,"balance":4380.7},
{"iban":"LT90 3905 7507 3923 1131","userid":11,"balance":68218.71},
{"iban":"AL63 7303 3394 URFJ VIYP HCZI 2EMM","userid":26,"balance":878419.76},
{"iban":"MC92 6875 7864 393P G3VZ 9QGI V72","userid":3,"balance":441538.06},
{"iban":"FR78 8843 1276 455A IEO2 V0PF Y33","userid":23,"balance":874928.35},
{"iban":"VG34 FIEG 5881 0323 0943 2430","userid":20,"balance":335427.97},
{"iban":"SE55 8814 6825 4885 0890 9786","userid":7,"balance":605903.2},
{"iban":"IL52 8952 2371 9489 2240 787","userid":27,"balance":832883.88},
{"iban":"SI02 4056 3323 7363 597","userid":1,"balance":160974.73},
{"iban":"PL03 4713 8307 8956 1740 1379 9722","userid":7,"balance":333832.83},
{"iban":"FR16 6996 8657 98G7 EHZS VQ0U K66","userid":25,"balance":891178.0},
{"iban":"CR33 9996 0621 4377 7618 5","userid":20,"balance":305318.41},
{"iban":"FR59 4988 7342 18JE ECUG QFXJ T78","userid":6,"balance":931757.08}]
