[{"iban":"FR69 4283 8044 28RW 9BMX 6WB1 S29","concepto":"compra en carrefour","fecha":"22/03/2017", "importe":-10.46, "balance":5234.21},
{"iban":"FR69 4283 8044 28RW 9BMX 6WB1 S29","concepto":"compra en amazon","fecha":"22/03/2017", "importe":-74.46, "balance":5204.21},
{"iban":"DK39 5824 6944 5112 11","concepto":"compra en amazon","fecha":"22/03/2017", "importe":-74.67, "balance":4234.21},
{"iban":"DK39 5824 6944 5112 11","concepto":"abono nomina","fecha":"24/03/2017", "importe":-10000.10, "balance":623421}]
